…
    ## $original_value_col
    ## [1] "median"
    ## 
    ## $time_descriptor
    ## [1] "2025"
    ## 
    ## $source
    ## [1] "pacea"
    ## 
    ## $details
    ## [1] "Converted using marea::as_ea_data() July 2025"
    ## 
    ## 
    ## Slot "data":
    ## # A tibble: 60 × 2
    ##     year median_value
    ##    <dbl>        <dbl>
    ##  1  1966        140. 
    ##  2  1967        122. 
    ##  3  1968        362. 
    ##  4  1969        232. 
    ##  5  1970         53.8
    ##  6  1971        693. 
    ##  7  1972         62.5
    ##  8  1973         40.6
    ##  9  1974        454. 
    ## 10  1975         16.6
    ## # ℹ 50 more rows
…
